<svg width="48" height="48" viewBox="0 0 48 48" fill="none" xmlns="http://www.w3.org/2000/svg">
<path fill-rule="evenodd" clip-rule="evenodd" d="M20.1324 0.160296C20.2064 0.104677 20.2781 0.0458517 20.2916 0.0295794C20.3114 0.00568976 20.3565 0 20.5262 0C20.7329 0 20.7389 0.00122321 20.8905 0.0736333C21.0825 0.1653 21.1605 0.229036 21.2565 0.372707C21.3568 0.522587 21.3979 0.664442 21.4341 0.984681C21.5797 2.27429 21.7595 3.44225 21.9715 4.47582C22.1687 5.43704 22.2841 5.95427 22.4389 6.5701C22.5505 7.01398 22.8784 8.20705 22.9559 8.45124C22.9899 8.55827 23.0609 8.78763 23.1137 8.96091C23.3868 9.85652 23.8006 11.052 24.2676 12.294C24.6121 13.2103 24.7525 13.6236 24.9044 14.1688C25.2246 15.3173 25.3791 16.1157 25.5088 17.2917C25.5693 17.8396 25.588 18.8377 25.5495 19.4601C25.4955 20.3342 25.4099 20.8946 25.2112 21.6748C24.9198 22.8197 24.7502 23.1353 24.3482 23.2803C24.1875 23.3383 23.9121 23.3386 23.7421 23.2809C23.4641 23.1867 23.2767 22.9814 23.2279 22.7177C23.2005 22.5699 23.2198 22.4785 23.38 21.9992C23.6349 21.2366 23.7524 20.6765 23.8467 19.7752C23.8804 19.4536 23.8856 18.3365 23.855 18.0238C23.779 17.248 23.7221 16.8613 23.5855 16.1915C23.3571 15.072 23.0425 14.0119 22.3527 12.0375C21.573 9.80585 21.1254 8.333 20.7954 6.91393C20.7077 6.53678 20.6481 6.38836 20.5876 6.39733C20.5655 6.40061 20.5318 6.42419 20.5128 6.44971C20.4921 6.47754 20.3934 6.83003 20.2665 7.33005C19.8749 8.87219 19.5238 10.0162 18.9012 11.778C18.6552 12.4738 18.193 13.8543 18.0758 14.2429C17.632 15.7144 17.3767 16.9912 17.3029 18.1072C17.2554 18.8268 17.2595 19.148 17.3256 19.8586C17.3964 20.6203 17.5742 21.422 17.8374 22.166C17.9214 22.4034 17.9259 22.4261 17.9261 22.6108C17.9263 22.8334 17.8967 22.9223 17.7795 23.0519C17.4489 23.4173 16.8189 23.4187 16.4817 23.055C16.3638 22.9279 16.3 22.8035 16.1921 22.4903C15.9221 21.7066 15.7381 20.8477 15.654 19.979C15.6427 19.8618 15.6254 19.6894 15.6155 19.596C15.5926 19.3773 15.5923 17.99 15.6152 17.7674C15.6248 17.674 15.642 17.4891 15.6533 17.3566C15.7228 16.5487 15.8799 15.6255 16.0918 14.7804C16.1917 14.382 16.3687 13.7772 16.4534 13.5444C16.4953 13.4291 16.5861 13.168 16.6552 12.9641C16.7243 12.7603 16.8954 12.2891 17.0355 11.917C17.3263 11.1446 17.4342 10.8418 17.7065 10.0359C17.9066 9.44332 17.9529 9.2975 18.1862 8.52538C18.6627 6.94833 19.0602 5.27448 19.3766 3.51208C19.4398 3.15986 19.5996 2.08568 19.6522 1.65874C19.6685 1.52623 19.6944 1.33613 19.7096 1.23629C19.7249 1.13645 19.7452 0.972857 19.7547 0.872758C19.7853 0.55237 19.9009 0.334343 20.1324 0.160296ZM32.3554 5.97062C32.6583 5.04484 33.4482 4.35261 34.3978 4.1807C34.5909 4.14572 35.1077 4.14487 35.3194 4.17918C35.5192 4.21154 35.8353 4.31147 36.0204 4.40078C36.4101 4.58878 36.8192 4.95274 37.0772 5.34085C37.2288 5.56898 37.316 5.75352 37.3962 6.01629C37.4895 6.32151 37.497 6.42445 37.497 7.3991C37.4971 8.24128 37.4967 8.3938 37.5714 8.45532C37.5883 8.46927 37.609 8.47854 37.6345 8.49011C37.7048 8.52197 37.7714 8.52462 38.5178 8.52525C39.395 8.52599 39.4562 8.53164 39.6652 8.6315C39.8192 8.70504 40.0725 8.96154 40.1479 9.1203C40.236 9.30591 40.2677 9.46708 40.2571 9.67445C40.2521 9.77129 40.1967 10.1591 40.134 10.5363C40.0713 10.9134 39.9996 11.3471 39.9747 11.5C39.822 12.4364 39.6428 13.5222 39.5817 13.8815L39.5107 14.2985L39.5055 16.8747C39.5017 18.7424 39.5061 19.4858 39.5215 19.5781C39.5515 19.7585 39.6774 20.0016 39.8123 20.1396C39.871 20.1996 40.0067 20.3148 40.1139 20.3956C40.3744 20.592 41.2059 21.2225 41.6543 21.5637C42.0168 21.8396 42.8019 22.4348 43.5844 23.0269C44.4048 23.6477 44.6545 23.8648 44.9709 24.2318C45.3309 24.6494 45.5227 24.9341 45.7608 25.4035C46.042 25.9583 46.2179 26.4864 46.3122 27.0588C46.3332 27.1862 46.3606 27.3405 46.3732 27.4017C46.3911 27.4889 46.396 29.486 46.3958 36.6591L46.3955 45.8054L46.337 46.0278C46.3048 46.1501 46.2531 46.3196 46.2221 46.4044C46.0058 46.9959 45.5595 47.5208 45.0134 47.826C44.8807 47.9001 44.7877 47.9561 44.7283 48H25.0182C24.9658 47.9612 24.8875 47.9149 24.7817 47.8592C24.0747 47.4869 23.5256 46.7319 23.3913 45.9472C23.356 45.7409 23.3553 45.5596 23.3553 36.6557C23.3553 27.7898 23.3496 27.3996 23.4267 27.0265C23.4358 26.9826 23.446 26.939 23.4575 26.8819C23.5599 26.3732 23.7006 25.9701 23.9523 25.4649C24.2187 24.93 24.5025 24.5149 24.8817 24.1051C25.2016 23.7596 25.3677 23.6219 26.4732 22.7863C27.6882 21.8678 28.1376 21.5268 28.4404 21.2933C28.619 21.1556 28.9865 20.8766 29.257 20.6734C29.8492 20.2283 30.0256 20.0632 30.1192 19.8664C30.1399 19.8229 30.1573 19.7898 30.1719 19.7555C30.2537 19.5638 30.2488 19.3352 30.2546 17.0322C30.2588 15.3537 30.2545 14.546 30.2406 14.4375C30.2295 14.3509 30.1662 13.9506 30.0998 13.5479C30.0335 13.1453 29.9417 12.5865 29.8958 12.3062L29.7029 11.1293C29.6427 10.7624 29.5711 10.3245 29.5438 10.1563C29.4841 9.78943 29.4684 9.53754 29.496 9.38718C29.5492 9.09678 29.7793 8.78944 30.0476 8.65022C30.2776 8.53092 30.3225 8.52608 31.2149 8.5246C32.0754 8.52319 32.1092 8.51976 32.1783 8.42676C32.2162 8.37572 32.2174 8.35139 32.2276 7.41669C32.239 6.37164 32.2445 6.30948 32.3554 5.97062ZM35.545 6.06948C35.4001 5.93555 35.3054 5.8826 35.1309 5.83805C34.9231 5.78495 34.7568 5.78955 34.573 5.85343C34.3022 5.94758 34.1224 6.10008 34.0075 6.33311C33.9043 6.54236 33.8973 6.61788 33.8981 7.50604C33.8988 8.3755 33.9021 8.40815 33.9955 8.4773C34.0464 8.51505 34.0694 8.51626 34.8398 8.52152C35.7605 8.52781 35.7664 8.52697 35.8301 8.38323C35.8647 8.30518 35.866 8.26378 35.859 7.50059C35.8506 6.60461 35.844 6.54642 35.7222 6.30533C35.6757 6.21317 35.6194 6.13829 35.545 6.06948ZM38.4319 10.2512C38.4152 10.2274 38.3738 10.1964 38.3397 10.1822C38.2875 10.1604 37.7432 10.1564 34.867 10.157C31.5369 10.1577 31.3783 10.1539 31.326 10.2265C31.3207 10.2339 31.3165 10.2421 31.3101 10.2512C31.3045 10.2592 31.2994 10.266 31.2951 10.2731C31.2576 10.3352 31.2746 10.4303 31.4741 11.6483C31.5392 12.0458 31.6274 12.5879 31.6701 12.8529C31.7592 13.4064 31.7836 13.4785 31.8996 13.5311C31.973 13.5643 32.0855 13.5657 34.871 13.5657C37.649 13.5657 37.7693 13.5643 37.8419 13.5313C37.8934 13.5079 37.9276 13.4759 37.9491 13.4304C37.9668 13.3932 38.0371 13.0227 38.1087 12.5894C38.4668 10.4202 38.486 10.324 38.4468 10.2703C38.4424 10.2643 38.4373 10.2589 38.4319 10.2512ZM7.25704 10.9564C7.35381 10.6679 7.52451 10.4916 7.76092 10.436C7.94264 10.3932 8.20146 10.4282 8.38317 10.5202C8.51238 10.5856 8.70938 10.7874 8.77289 10.9194C8.83117 11.0406 8.87871 11.2258 8.8791 11.3332C8.87927 11.374 8.89627 11.5408 8.91691 11.7039C9.10393 13.1814 9.5282 14.5865 10.2656 16.1704C10.5331 16.745 11.0242 17.649 11.3628 18.1906C12.3779 19.8136 13.002 20.6514 14.0964 21.8602C14.453 22.254 16.5657 24.3789 16.8411 24.6207C17.0259 24.783 18.7696 26.5249 19.0189 26.7964C19.8026 27.6496 20.1113 28.0101 20.3349 28.3334C20.5449 28.6371 20.5812 28.7054 20.6197 28.8701C20.6717 29.0926 20.6192 29.3236 20.465 29.5499C20.3082 29.7802 20.0873 29.9042 19.8384 29.9015C19.5687 29.8987 19.4187 29.7982 19.1015 29.4077C18.8248 29.067 18.2861 28.4413 18.0252 28.1573C17.3643 27.4382 16.9805 27.0512 14.4446 24.5475C13.4868 23.6019 12.6565 22.7115 11.9303 21.8509C11.5281 21.3744 10.9743 20.6306 10.5482 19.9948C9.71885 18.7573 8.93395 17.3102 8.41545 16.0626C8.3439 15.8905 8.28092 15.809 8.21937 15.809C8.13261 15.809 8.11097 15.9046 8.06205 16.504C8.01179 17.1196 8.00238 17.2493 7.98808 17.5234C7.96308 18.0023 7.92477 19.2267 7.92661 19.4879C7.92754 19.6204 7.93745 20.0291 7.94862 20.396C7.98746 21.6708 8.0647 22.5571 8.24099 23.7506C8.46635 25.2763 8.82924 26.7186 9.33439 28.0967C9.59301 28.8022 9.98911 29.7088 10.2332 30.1539C10.6017 30.8257 10.6355 30.9141 10.6186 31.1612C10.611 31.2723 10.5952 31.3339 10.5519 31.4216C10.4752 31.5773 10.279 31.7656 10.1104 31.8453C9.99035 31.9021 9.97231 31.9053 9.77021 31.9053C9.5784 31.9053 9.54622 31.9004 9.45248 31.8565C9.24187 31.7578 9.15635 31.6508 8.8694 31.1269C8.45904 30.3776 7.93726 29.1708 7.61553 28.227C7.36294 27.4861 7.02858 26.2731 6.8849 25.5764C6.68963 24.6297 6.49665 23.3849 6.42943 22.6386C6.41933 22.5265 6.40239 22.343 6.39177 22.2308C6.31656 21.4362 6.2923 20.7548 6.29243 19.4416C6.29256 18.1358 6.31136 17.5843 6.39092 16.5504C6.46202 15.6267 6.65921 14.0374 6.81174 13.1587C6.9727 12.2315 7.19023 11.1557 7.25704 10.9564ZM37.783 15.3331C37.7617 15.3044 37.7157 15.2709 37.6809 15.2587C37.5896 15.2267 32.1339 15.2267 32.0425 15.2587C32.0078 15.2709 31.9618 15.3044 31.9405 15.3331C31.9017 15.3854 31.9016 15.3893 31.8915 17.5942C31.8824 19.5669 31.8869 19.8301 31.8177 20.0723C31.8009 20.1311 31.7798 20.1886 31.753 20.2691C31.5926 20.7517 31.3132 21.1524 30.8871 21.5111C30.802 21.5827 30.4902 21.8235 30.1942 22.0461C29.8982 22.2688 29.56 22.5268 29.4426 22.6194C29.3252 22.7121 28.9327 23.0109 28.5703 23.2834C26.4273 24.8951 26.2921 25.0044 25.9597 25.3948C25.6467 25.7624 25.3709 26.264 25.2115 26.7557C25.0345 27.3014 24.9977 27.6174 24.9977 28.5911C24.9977 29.2616 24.9988 29.2815 25.0366 29.3324C25.0442 29.3427 25.0503 29.3519 25.0574 29.3601C25.1219 29.4347 25.2762 29.4317 27.5104 29.4268L29.8045 29.4218L29.8886 29.38C30.0239 29.3127 30.1026 29.2364 30.283 28.9978C30.9219 28.1529 31.6966 27.4911 32.5419 27.0681C33.9265 26.3752 35.4326 26.3211 36.8661 26.9128C37.7811 27.2904 38.691 28.0153 39.4039 28.9344C39.6315 29.2279 39.7124 29.3118 39.8262 29.3724L39.919 29.4218L42.2131 29.4268C44.4473 29.4317 44.6016 29.4347 44.6661 29.3602C44.6732 29.3519 44.6792 29.3427 44.6869 29.3325C44.7246 29.2818 44.7259 29.2578 44.7312 28.5559C44.7372 27.7693 44.7225 27.56 44.6313 27.1285C44.5187 26.5958 44.2604 26.0305 43.9239 25.5798C43.7938 25.4056 43.4271 25.0263 43.2132 24.8449C43.0432 24.7007 42.6169 24.374 41.5828 23.5957C41.2219 23.3241 40.7709 22.982 40.5806 22.8354C40.3903 22.6888 40.0174 22.4058 39.752 22.2066C39.4866 22.0074 39.1623 21.7612 39.0313 21.6596C38.5933 21.3197 38.3374 21.023 38.1392 20.6254C38.0119 20.3699 37.9454 20.1804 37.8832 19.8956C37.8432 19.7127 37.8425 19.6817 37.8323 17.5479C37.8219 15.3902 37.8218 15.3853 37.783 15.3331ZM1.42139 25.2463C1.48905 25.0389 1.7128 24.8434 1.94766 24.7864C2.30688 24.6991 2.73247 24.8688 2.90899 25.1697C2.9933 25.3133 3.01477 25.4407 3.01494 25.7978C3.0155 27.0037 3.40425 28.0835 4.20291 29.0975C4.39548 29.342 4.90434 29.8589 5.19072 30.1011C5.89878 30.6998 6.5931 31.1466 7.80019 31.7806C8.48406 32.1397 9.92278 32.7511 11.56 33.3783C12.2984 33.6612 12.9896 33.9453 13.5005 34.1758C13.6179 34.2288 13.7849 34.3035 13.8717 34.3419C14.175 34.4762 15.1883 34.9909 15.5538 35.1963C16.9821 35.9988 18.0858 36.8019 19.0282 37.7241C19.621 38.3042 20.1271 38.934 20.4885 39.5411C20.6914 39.882 20.9899 40.4919 21.0282 40.6438C21.0839 40.8648 21.0383 41.0879 20.9026 41.259C20.7642 41.4336 20.5992 41.5228 20.289 41.5907C19.9752 41.6594 18.9779 41.8299 18.4093 41.9121C17.9188 41.9829 17.6616 42.0145 17.036 42.0806C16.9169 42.0932 16.4851 42.1232 16.1173 42.1445C15.9591 42.1537 15.696 42.1722 15.5327 42.1856C15.2061 42.2123 13.7865 42.2189 13.3799 42.1954C12.0264 42.1176 10.9985 41.9752 9.98363 41.7251C7.91531 41.2154 6.28604 40.3843 4.90798 39.136C4.74476 38.9882 4.66373 38.9149 4.58645 38.8379C4.50734 38.759 4.43217 38.6762 4.27679 38.5054C3.82451 38.0083 3.34967 37.367 3.0056 36.7889C2.87113 36.5629 2.44407 35.7216 2.33463 35.467C1.80056 34.2247 1.39733 32.7095 1.20679 31.2288C1.15861 30.8545 1.12185 30.4643 1.08103 29.8944C1.0545 29.5242 1.05424 28.1828 1.08061 27.8465C1.0918 27.7038 1.10949 27.4744 1.1199 27.3368C1.17737 26.5768 1.328 25.5324 1.42139 25.2463ZM37.0731 28.9426C36.5243 28.5359 35.9553 28.295 35.3164 28.1989C35.0934 28.1654 34.6178 28.1648 34.4071 28.1977C34.0397 28.2552 33.6517 28.3762 33.3259 28.5349C32.6832 28.8481 32.0906 29.3673 31.5293 30.1088C31.3119 30.3961 31.2412 30.4723 31.0689 30.6058C30.8266 30.7935 30.5804 30.9238 30.3326 30.9955C30.2825 31.0101 30.2429 31.0223 30.2028 31.0326C29.9781 31.0904 29.738 31.0884 27.5463 31.0979C25.1408 31.1084 25.1396 31.1084 25.0872 31.1472C25.0584 31.1685 25.0249 31.2144 25.0127 31.2491C24.9958 31.2972 24.9903 32.2605 24.9895 35.3012C24.9885 39.1522 24.9793 39.4194 25.0715 39.4608C25.0867 39.4677 25.1047 39.4684 25.1259 39.478C25.1987 39.511 25.3019 39.5125 27.5774 39.5129C29.5545 39.5133 29.9778 39.5178 30.1014 39.5398C30.6476 39.6374 31.1055 39.9285 31.4704 40.4103C32.0299 41.1491 32.6725 41.7279 33.257 42.0197C33.6092 42.1955 34.0092 42.3272 34.3792 42.3892C34.5924 42.425 35.1832 42.4186 35.4092 42.3781C36.024 42.2679 36.5671 42.028 37.0768 41.6412C37.5219 41.3035 37.8225 40.9965 38.1987 40.4955C38.546 40.033 38.89 39.7662 39.3329 39.6157C39.3755 39.6013 39.4107 39.5888 39.4464 39.5782C39.6711 39.5111 39.9164 39.5132 42.1435 39.5129C44.4215 39.5125 44.5248 39.511 44.5976 39.478C44.6188 39.4684 44.6368 39.4677 44.652 39.4608C44.7442 39.4194 44.735 39.1522 44.734 35.3012C44.7332 32.2605 44.7277 31.2972 44.7108 31.2491C44.6986 31.2144 44.6651 31.1685 44.6363 31.1472C44.5839 31.1084 44.583 31.1084 42.1772 31.0983C39.8151 31.0885 39.7675 31.0876 39.6035 31.0493C39.022 30.9137 38.6232 30.6493 38.2461 30.1494C38.1672 30.0448 38.0424 29.8884 37.9689 29.8018C37.7591 29.5545 37.284 29.0988 37.0731 28.9426ZM3.12698 30.2399C3.06219 30.1599 2.9833 30.0786 2.95165 30.0593C2.83009 29.9853 2.79207 30.0263 2.79212 30.2314C2.79225 30.6816 3.01568 32.1082 3.20231 32.8505C3.46141 33.881 3.85655 34.9226 4.25701 35.6305C4.78475 36.5635 5.35532 37.282 6.09556 37.9455C7.70721 39.3902 9.9843 40.2652 12.7303 40.4951C12.863 40.5062 13.0676 40.5243 13.185 40.5353C13.4634 40.5612 15.4512 40.5609 15.751 40.5348C15.8759 40.5239 16.0992 40.5059 16.2472 40.4948C17.1193 40.4294 18.4757 40.2557 18.6367 40.1889C18.7806 40.1291 18.76 40.0093 18.5635 39.7635C18.3869 39.5425 17.5441 38.6935 17.2401 38.4305C16.7552 38.0108 16.1139 37.5361 15.5791 37.201C15.0155 36.8478 14.1734 36.3922 13.6863 36.1769C13.5994 36.1385 13.424 36.0599 13.2964 36.0022C12.8811 35.8144 12.0239 35.4645 11.1807 35.1387C10.2006 34.76 9.09221 34.3229 8.83298 34.2129C8.47766 34.0621 8.01916 33.8578 7.8883 33.7919C7.81585 33.7554 7.69126 33.6976 7.61142 33.6635C7.45878 33.5982 6.93913 33.3263 6.57809 33.1228C6.32921 32.9826 6.22166 32.9126 5.77447 32.5997C5.59276 32.4726 5.34565 32.3013 5.22533 32.2191C4.82114 31.9427 4.43846 31.6165 3.93639 31.1205C3.60591 30.7939 3.34976 30.5153 3.12698 30.2399ZM27.537 34.9104C27.6277 34.7139 27.8287 34.5495 28.0414 34.4979C28.1705 34.4665 41.529 34.4618 41.6766 34.493C42.1059 34.584 42.3639 35.0237 42.2646 35.4952C42.1945 35.8283 41.9533 36.0477 41.5854 36.1132C41.367 36.1521 28.3612 36.1529 28.159 36.114C27.8365 36.0521 27.6585 35.9297 27.5406 35.689C27.4467 35.4972 27.4224 35.3303 27.462 35.148C27.479 35.0698 27.5127 34.9629 27.537 34.9104ZM30.2513 41.5541C30.059 41.3036 30.0005 41.249 29.8645 41.1933L29.7673 41.1535L27.4846 41.149C25.2818 41.1447 25.1992 41.1458 25.1253 41.1795C25.1027 41.1899 25.0837 41.1952 25.0679 41.2053C24.9805 41.2612 24.9874 41.4644 24.9929 43.4702C24.9983 45.4374 25.0007 45.5717 25.0328 45.6849C25.0973 45.9126 25.1686 46.0352 25.3314 46.1984C25.5064 46.3738 25.6728 46.4658 25.8756 46.4994C25.9657 46.5143 28.4603 46.5185 34.936 46.5148L43.8721 46.5096L43.9965 46.4674C44.1604 46.4119 44.3798 46.2635 44.4761 46.143C44.5816 46.011 44.6771 45.8159 44.7084 45.6685C44.7437 45.5021 44.746 41.3945 44.7108 41.2942C44.6986 41.2595 44.6651 41.2136 44.6363 41.1923L44.5838 41.1535H42.2793H39.9747L39.8594 41.2066C39.7258 41.2683 39.6145 41.3781 39.4057 41.6539C39.1909 41.9377 38.8342 42.3301 38.5946 42.5461C38.3749 42.7442 37.8888 43.1223 37.6983 43.2433C37.0167 43.6762 36.289 43.9408 35.4939 44.0448C35.2055 44.0824 34.5147 44.0819 34.2207 44.0437C33.3624 43.9322 32.5318 43.5992 31.781 43.0657C31.2716 42.7038 30.7012 42.1401 30.2513 41.5541Z" fill="white"/>
</svg>
