<svg width="48" height="48" viewBox="0 0 48 48" fill="none" xmlns="http://www.w3.org/2000/svg">
<g clip-path="url(#clip0)">
<path d="M47.7763 6.33109C47.5981 6.12165 47.3371 6.00099 47.0621 6.00099H38.6262C38.0999 3.90166 37.0182 1.91416 35.3797 0.2756C35.2038 0.0998194 34.9654 0.00100708 34.7168 0.00100708C34.4682 0.00100708 34.2297 0.0998194 34.0539 0.2756L28.3271 6.0024C28.3181 6.00212 28.3093 6.00109 28.3002 6.00109H20.8148C20.3294 3.64956 18.2428 1.87628 15.7497 1.87628C13.2566 1.87628 11.17 3.64956 10.6847 6.00099H0.93722C0.662252 6.00099 0.401252 6.12165 0.223128 6.33109C0.0450966 6.54053 -0.032247 6.81746 0.0118154 7.08887L6.01884 44.0651C6.38934 46.3457 8.33521 48.0009 10.6457 48.0009H37.3538C39.6642 48.0009 41.6101 46.3457 41.9806 44.0651L47.9876 7.08887C48.0316 6.81746 47.9543 6.54053 47.7763 6.33109ZM34.6874 2.29366C38.1386 6.41752 37.9273 12.5875 34.0538 16.461C30.1803 20.3346 24.0103 20.546 19.8864 17.0947L21.4831 15.498C22.9397 16.6606 24.7328 17.2934 26.624 17.2934C28.831 17.2934 30.9058 16.434 32.4663 14.8735C33.487 13.8527 34.1832 12.629 34.557 11.3312C34.5636 11.312 34.5704 11.293 34.5758 11.2731C34.5808 11.2542 34.5841 11.2352 34.588 11.2163C35.2647 8.73324 34.766 5.99518 33.0905 3.8905L34.6874 2.29366ZM38.3629 32.2763V38.3378C38.3629 39.2766 37.5992 40.0403 36.6604 40.0403H30.599C29.6602 40.0403 28.8965 39.2766 28.8965 38.3378V32.2763C28.8965 31.3375 29.6602 30.5738 30.599 30.5738H36.6604V30.5738C37.5992 30.5738 38.3629 31.3375 38.3629 32.2763ZM37.1816 28.3457C36.9538 28.5734 36.651 28.6989 36.329 28.6989C36.0069 28.6989 35.7041 28.5734 35.4763 28.3456L31.9967 24.866C31.5266 24.3959 31.5266 23.6309 31.9967 23.1608L35.4763 19.6812C35.7041 19.4534 36.0069 19.328 36.329 19.328C36.6511 19.328 36.9538 19.4534 37.1816 19.6812L40.6612 23.1608C41.1313 23.6309 41.1313 24.3959 40.6612 24.866L37.1816 28.3457ZM31.7552 5.22587C32.5704 6.32021 33.0113 7.6418 33.0113 9.03118C33.0113 9.31364 32.9913 9.59283 32.9555 9.86836L28.3474 8.63368L31.7552 5.22587ZM32.4418 11.6718C32.1284 12.3611 31.6918 12.9962 31.1404 13.5476C30.5891 14.099 29.954 14.5357 29.2647 14.8489L28.1018 10.509L32.4418 11.6718ZM26.6239 15.4184C25.2345 15.4184 23.913 14.9776 22.8186 14.1624L24.9101 12.0709C24.9619 12.029 25.0092 11.9818 25.0511 11.9299L26.2264 10.7547L27.4611 15.3627C27.1856 15.3986 26.9064 15.4184 26.6239 15.4184ZM20.8543 7.87599H26.4533L23.9253 10.404H19.6799C20.2827 9.69905 20.6999 8.83121 20.8543 7.87599ZM15.7497 3.75128C17.5675 3.75128 19.0464 5.23018 19.0464 7.04809C19.0464 8.86599 17.5675 10.3448 15.7497 10.3448C13.9319 10.3448 12.453 8.8659 12.453 7.04799C12.453 5.23009 13.932 3.75128 15.7497 3.75128ZM2.03934 7.87599H10.6451C10.7995 8.83121 11.2167 9.69905 11.8195 10.404H2.45006L2.03934 7.87599ZM7.27846 40.1257L2.75465 12.279H22.0503L17.8683 16.4609C17.6926 16.6367 17.5938 16.8752 17.5938 17.1238C17.5938 17.3725 17.6926 17.611 17.8683 17.7868C20.2823 20.2007 23.4531 21.4077 26.624 21.4077C28.7091 21.4077 30.794 20.8857 32.6638 19.8418L30.6709 21.8348C29.4697 23.036 29.4697 24.9905 30.6709 26.1916L33.178 28.6986H30.5991C28.6264 28.6986 27.0216 30.3034 27.0216 32.2761V38.3376C27.0216 38.9887 27.1974 39.5992 27.5025 40.1257H7.27846ZM40.1299 43.7644C39.9075 45.1328 38.7401 46.1259 37.3538 46.1259H10.6457C9.25939 46.1259 8.09193 45.1327 7.86955 43.7644L7.58305 42.0009H40.4164L40.1299 43.7644ZM40.721 40.1259H39.757C40.0622 39.5994 40.2379 38.9888 40.2379 38.3377V32.2763C40.2379 31.097 39.6641 30.0496 38.7813 29.3975L41.987 26.1918C43.1882 24.9906 43.1882 23.0362 41.987 21.8349L38.5074 18.3552C37.9255 17.7733 37.1518 17.4529 36.329 17.4529C36.0888 17.4529 35.853 17.481 35.6247 17.5341C37.0717 16.0036 38.0536 14.1916 38.5702 12.279H45.2447L40.721 40.1259ZM45.5493 10.404H38.924C39.0169 9.56433 39.0248 8.71693 38.9466 7.87599H45.96L45.5493 10.404Z" fill="white"/>
<path d="M26.8041 30.7796L23.891 27.8666C23.8909 27.8665 23.8908 27.8664 23.8908 27.8663C23.8907 27.8662 23.8906 27.8661 23.8905 27.866L13.5323 17.5077C13.5322 17.5076 13.5322 17.5076 13.5321 17.5075C13.532 17.5074 13.532 17.5074 13.532 17.5073L10.6188 14.594C10.4429 14.4182 10.2045 14.3194 9.95587 14.3194C9.70724 14.3194 9.46884 14.4182 9.29296 14.594C7.35965 16.5274 6.14437 18.978 5.77866 21.6808C5.42484 24.2958 5.92566 27.0035 7.18912 29.305C7.43822 29.7589 8.00793 29.9248 8.46206 29.6756C8.9159 29.4265 9.08184 28.8566 8.83265 28.4027C6.75206 24.6124 7.24893 19.8951 9.98587 16.6127L11.5819 18.2087C10.4193 19.6654 9.78646 21.4585 9.78646 23.3496C9.78646 25.5566 10.6459 27.6313 12.2064 29.1919C13.2268 30.2122 14.45 30.9083 15.7474 31.2822C15.767 31.2889 15.7865 31.296 15.8069 31.3015C15.822 31.3055 15.837 31.3072 15.8521 31.3105C16.5701 31.5072 17.3091 31.6079 18.0487 31.6079C19.8699 31.6079 21.6903 31.0095 23.1893 29.8162L24.7857 31.4126C21.4863 34.1649 16.749 34.6518 12.9478 32.5392C12.4956 32.2878 11.9245 32.4507 11.6729 32.9033C11.4214 33.3559 11.5844 33.9266 12.037 34.1782C13.8707 35.1973 15.9644 35.7306 18.0669 35.7306C18.6076 35.7306 19.1491 35.6953 19.6864 35.6239C22.4016 35.2635 24.8629 34.0468 26.8043 32.1055C27.1703 31.7394 27.1703 31.1457 26.8041 30.7796ZM11.7171 24.187C11.6812 23.9114 11.6614 23.6323 11.6614 23.3498C11.6614 21.9604 12.1022 20.6388 12.9173 19.5445L16.3251 22.9523L11.7171 24.187ZM15.4079 29.1675C14.7185 28.8543 14.0835 28.4176 13.5321 27.8662C12.9808 27.3148 12.5441 26.6797 12.2308 25.9904L16.5708 24.8276L15.4079 29.1675ZM18.0485 29.737C17.7662 29.737 17.4869 29.717 17.2114 29.6812L18.4461 25.0732L21.8539 28.481C20.7595 29.2962 19.4379 29.737 18.0485 29.737Z" fill="white"/>
<path d="M10.6441 30.8049L10.6205 30.7815C10.2554 30.4142 9.66167 30.4128 9.29464 30.7778C8.92751 31.143 8.92592 31.7366 9.29108 32.1036L9.31817 32.1308C9.50126 32.3139 9.74117 32.4054 9.98108 32.4054C10.221 32.4054 10.461 32.3139 10.6441 32.1308C11.0102 31.7647 11.0102 31.1711 10.6441 30.8049Z" fill="white"/>
<path d="M11.3869 37.1522C11.2116 36.9779 10.9706 36.8785 10.7241 36.8785C10.4775 36.8785 10.2356 36.9779 10.0612 37.1522C9.88603 37.3275 9.78656 37.5685 9.78656 37.816C9.78656 38.0625 9.88603 38.3035 10.0612 38.4788C10.2356 38.6532 10.4775 38.7535 10.7241 38.7535C10.9706 38.7535 11.2125 38.6532 11.3869 38.4788C11.5612 38.3035 11.6616 38.0625 11.6616 37.816C11.6616 37.5685 11.5612 37.3275 11.3869 37.1522Z" fill="white"/>
<path d="M26.804 22.8385C26.6297 22.6641 26.3878 22.5638 26.1412 22.5638C25.8947 22.5638 25.6528 22.6641 25.4784 22.8385C25.3041 23.0138 25.2037 23.2547 25.2037 23.5022C25.2037 23.7488 25.304 23.9897 25.4784 24.165C25.6528 24.3394 25.8947 24.4388 26.1412 24.4388C26.3878 24.4388 26.6297 24.3394 26.804 24.165C26.9783 23.9897 27.0787 23.7488 27.0787 23.5022C27.0787 23.2547 26.9784 23.0138 26.804 22.8385Z" fill="white"/>
<path d="M42.6149 13.9229C42.4406 13.7485 42.1988 13.6482 41.9522 13.6482C41.7055 13.6482 41.4637 13.7485 41.2894 13.9229C41.115 14.0973 41.0147 14.3391 41.0147 14.5857C41.0147 14.8332 41.1149 15.0741 41.2894 15.2485C41.4637 15.4238 41.7055 15.5232 41.9522 15.5232C42.1988 15.5232 42.4406 15.4238 42.6149 15.2485C42.7893 15.0741 42.8897 14.8323 42.8897 14.5857C42.8897 14.3391 42.7893 14.0973 42.6149 13.9229Z" fill="white"/>
<path d="M16.0069 14.3063C15.8325 14.131 15.5906 14.0316 15.3441 14.0316C15.0966 14.0316 14.8556 14.131 14.6812 14.3063C14.5059 14.4807 14.4066 14.7216 14.4066 14.9691C14.4066 15.2157 14.5059 15.4576 14.6812 15.6319C14.8556 15.8063 15.0966 15.9066 15.3441 15.9066C15.5906 15.9066 15.8325 15.8063 16.0069 15.6319C16.1811 15.4566 16.2815 15.2157 16.2815 14.9691C16.2815 14.7226 16.1812 14.4807 16.0069 14.3063Z" fill="white"/>
</g>
<defs>
<clipPath id="clip0">
<rect width="48" height="48" fill="white"/>
</clipPath>
</defs>
</svg>
