<svg width="48" height="48" viewBox="0 0 48 48" fill="none" xmlns="http://www.w3.org/2000/svg">
<path fill-rule="evenodd" clip-rule="evenodd" d="M27.4533 0.100671C26.7172 0.39896 26.4268 0.572693 26.0313 0.951286C25.3931 1.56216 25.0647 2.12696 24.7326 3.18478C24.4568 4.06314 24.3966 4.12151 23.7658 4.12151C22.7679 4.12151 22.167 4.49218 21.7411 5.37059C21.4193 6.03407 21.3585 6.45841 21.3863 7.84837C21.4116 9.12037 21.4636 9.51317 21.7464 10.5738C22.057 11.7383 22.7015 13.1957 23.5678 14.6924C24.3376 16.0221 25.2328 17.1781 25.928 17.7398C26.5179 18.2165 26.7101 18.4232 26.7702 18.646C26.8073 18.7834 26.8202 19.2479 26.8104 20.0862C26.7963 21.2817 26.7924 21.327 26.6944 21.4247C26.5359 21.5828 26.3844 21.5102 25.9804 21.0825C25.3938 20.4616 24.7461 19.9783 23.9495 19.5671C23.4087 19.2879 23.2094 19.1591 23.0882 19.0109C23.0016 18.9048 22.6192 18.3328 22.2386 17.7398C20.4546 14.9605 18.9271 12.552 18.8387 12.379C18.6927 12.0934 18.7159 11.9159 18.9814 11.2858C19.3211 10.4798 19.4138 9.9919 19.3851 9.16097C19.3403 7.86365 18.9116 6.86208 18.0215 5.97542C17.5679 5.5236 17.1949 5.26207 16.6096 4.98529C15.9494 4.67313 15.7292 4.62616 14.8133 4.60225C13.91 4.57862 13.5974 4.62273 12.912 4.87035C12.2778 5.09949 11.7908 5.42366 11.2268 5.99197C10.4852 6.73926 10.0908 7.50634 9.9123 8.54855C9.79977 9.2056 9.7963 9.40099 9.88722 9.96063C10.1545 11.6057 11.1525 12.9457 12.6115 13.6186C13.8424 14.1862 15.1848 14.197 16.6021 13.6506C16.9801 13.5049 17.0413 13.4937 17.1991 13.5409C17.401 13.6013 17.5799 13.803 17.9296 14.3645C18.2575 14.8911 18.3022 15.0444 18.1932 15.2672C18.0803 15.4978 17.9682 15.5687 14.6788 17.4935C14.045 17.8643 13.8226 17.942 13.6177 17.8642C13.5512 17.839 13.2748 17.6214 13.0033 17.3806C12.4515 16.8911 12.0858 16.6583 11.5321 16.4441C10.0988 15.8897 8.44764 16.0516 7.20536 16.8685C5.95834 17.6885 5.16472 18.9496 5.02636 20.3311C4.79022 22.6891 6.15771 24.7331 8.44262 25.4374C8.83139 25.5572 8.90767 25.5644 9.77089 25.5644C10.6377 25.5644 10.7092 25.5576 11.1065 25.4352C12.0218 25.1534 12.8941 24.5839 13.4228 23.9228C13.8342 23.4082 14.0569 23.039 14.2369 22.5733C14.463 21.9879 14.5126 21.6702 14.5136 20.8017C14.514 20.3652 14.5365 19.9612 14.5644 19.8875C14.6442 19.6766 14.8357 19.5076 15.3128 19.2272C15.5582 19.0829 16.1922 18.709 16.7218 18.3962C19.1856 16.9408 19.0501 17.0132 19.3106 17.0132C19.4835 17.0132 19.5333 17.0391 19.7003 17.2158C19.9006 17.4276 20.7134 18.6807 20.8611 19.0053C20.9677 19.2394 20.9699 19.3674 20.871 19.5587C20.7629 19.7676 20.3132 20.2966 20.1358 20.4236C19.955 20.553 19.8171 20.555 19.279 20.4363C18.7707 20.3242 18.0868 20.3146 17.6654 20.4137C17.2547 20.5104 16.851 20.7343 16.5035 21.0585C15.9563 21.5688 15.6972 22.1235 15.6544 22.876C15.6111 23.6365 15.8133 24.4179 16.3044 25.3876C16.4564 25.6879 16.5809 25.9909 16.5809 26.0609C16.5809 26.2041 16.4249 26.4545 16.1482 26.7557C16.0457 26.8673 15.9057 27.0782 15.8369 27.2245C15.7273 27.4579 15.7121 27.5481 15.7133 27.9593C15.7153 28.6531 15.9025 29.0844 16.5057 29.7843C17.6764 31.1425 19.6854 32.1498 22.7803 32.9302C23.8675 33.2044 24.2326 33.2502 25.3967 33.2588C26.6245 33.2678 26.6824 33.282 26.7697 33.5961C26.8294 33.8107 26.8352 41.5915 26.7759 41.8978C26.7543 42.0095 26.7131 42.1243 26.6843 42.153C26.5855 42.2516 26.3807 42.1259 26.2032 41.8578C26.1097 41.7166 25.7846 41.2213 25.4806 40.7572C24.4933 39.2499 22.9873 37.1501 22.1015 36.0459C21.1659 34.8796 20.5866 34.3695 20.0779 34.2642C19.8564 34.2183 19.7281 34.226 19.1951 34.317C18.5945 34.4195 18.5572 34.4207 18.1897 34.3484C17.7317 34.2584 17.1801 34.0215 16.2542 33.5171C15.3842 33.0433 15.0151 32.9028 14.5558 32.8707C14.2426 32.8487 14.1663 32.8601 13.9431 32.9621C13.8029 33.0262 13.6109 33.1463 13.5164 33.2292C13.2969 33.4215 13.074 33.8661 13.0331 34.1932C12.97 34.6968 13.2466 35.4934 13.7432 36.2391C14.012 36.6427 14.1064 36.871 14.0684 37.0253C14.0517 37.0925 13.9238 37.2971 13.7841 37.4798C13.1532 38.3045 13.0841 38.9917 13.5401 39.9038C13.6994 40.2223 13.822 40.3779 14.2526 40.8082C14.5772 41.1327 14.9398 41.4384 15.2174 41.6217C16.0979 42.2032 17.5351 42.8342 18.5809 43.0987C20.0576 43.4722 21.8672 43.506 23.6726 43.1939C24.4149 43.0656 24.6806 43.1136 24.9099 43.4176C25.04 43.5899 26.4552 46.3999 26.7274 47.0261C26.8252 47.2511 26.9525 47.5015 27.0103 47.5825C27.1394 47.7634 27.5032 48 27.6523 48C27.822 48 28.0995 47.8389 28.2875 47.6312C28.6021 47.2836 28.604 47.2642 28.604 44.3179C28.604 42.7688 28.6232 41.5802 28.6507 41.4316C28.6765 41.2928 28.8132 40.9576 28.9544 40.6869C29.0957 40.4162 29.488 39.6492 29.8262 38.9824C30.5249 37.6051 30.632 37.4276 30.8257 37.3277C31.0155 37.2297 31.2388 37.2365 32.0324 37.3647C32.6459 37.4637 32.8648 37.4746 34.2398 37.4751C35.7297 37.4755 35.7805 37.4724 36.3645 37.3465C38.3042 36.9284 40.3258 35.9092 41.3362 34.8402C41.9429 34.1982 42.1943 33.6466 42.1969 32.9519C42.1984 32.5554 42.1833 32.4732 42.059 32.2025C41.9822 32.0353 41.8167 31.7716 41.6913 31.6165C41.3009 31.1341 41.2975 31.0278 41.6544 30.4715C42.1762 29.6584 42.4118 29.0552 42.4118 28.5319C42.4118 27.88 42.1746 27.4225 41.7016 27.1619C41.4735 27.0362 41.4079 27.0228 41.0263 27.0236C40.4767 27.0248 40.3252 27.0787 39.0529 27.7266C37.5256 28.5042 37.0204 28.6391 36.3173 28.4572C35.8019 28.3239 35.4109 28.3274 35.1083 28.4681C34.3882 28.8028 33.4209 29.9485 31.1988 33.0987C30.3499 34.3023 29.5871 35.4568 29.3764 35.857C29.0788 36.4222 28.8276 36.6066 28.6878 36.3624C28.6404 36.2794 28.6248 35.4745 28.6149 32.6003C28.6031 29.1825 28.6077 28.9331 28.6854 28.7804C28.7932 28.568 28.9387 28.5 29.2869 28.4992C30.024 28.4973 31.5138 28.2009 32.3612 27.8875C32.847 27.7077 34.0488 27.1892 34.4746 26.9755C34.9555 26.7342 36.0798 26.0901 36.4237 25.8588C38.3391 24.5711 39.7307 23.025 40.1802 21.6851C40.407 21.009 40.3788 20.2571 40.1066 19.7245C39.9587 19.4351 39.6207 19.0996 39.2065 18.831C38.8283 18.5858 38.7015 18.4281 38.7015 18.2033C38.7015 18.1334 38.7845 17.8212 38.8859 17.5095C39.1617 16.6616 39.233 16.2485 39.2093 15.6351C39.1925 15.2003 39.169 15.0706 39.0665 14.8475C38.8213 14.3137 38.334 13.9777 37.6053 13.84C37.2808 13.7786 37.1609 13.7764 36.8229 13.8256C35.7319 13.9843 34.3654 14.6313 33.2301 15.5265C32.7878 15.8752 32.4755 16.0741 32.3683 16.075C32.2387 16.0762 31.9967 15.9266 31.945 15.8133C31.8331 15.5682 31.9049 15.3447 32.2673 14.8099C32.5631 14.3733 33.2516 13.135 33.6096 12.3956C34.5008 10.5551 34.9791 8.92995 35.0963 7.34362C35.2212 5.65421 34.9143 4.54173 34.1152 3.78707C33.6 3.30057 33.1122 3.14287 32.3223 3.20737C31.7146 3.25702 31.5377 3.24727 31.3992 3.1567C31.3279 3.11005 31.1517 2.82264 30.9461 2.41728C30.5077 1.5533 30.3453 1.32097 29.8405 0.835917C29.5022 0.510907 29.3354 0.391272 28.9743 0.214774C28.5391 0.00203822 28.5158 -0.003681 28.1076 0.000866242C27.8031 0.00424151 27.6238 0.0315718 27.4533 0.100671ZM28.4055 2.01815C28.8605 2.23806 29.3978 3.18909 29.7454 4.38989C29.9832 5.21148 30.1037 5.42572 30.4119 5.57465C30.7504 5.73817 31.0294 5.69499 31.5526 5.39806C32.1282 5.07146 32.4071 4.983 32.641 5.05294C32.8801 5.12448 33.0916 5.34954 33.1936 5.64099C33.2631 5.83971 33.2766 6.03566 33.2749 6.81703C33.2729 7.66544 33.2603 7.81035 33.1422 8.34059C32.9786 9.07598 32.6077 10.2156 32.3031 10.9189C31.6304 12.4726 30.4756 14.3637 29.5853 15.3695C29.0865 15.9329 28.8469 16.0211 28.6863 15.7004C28.6129 15.554 28.6041 15.366 28.6041 13.9394C28.604 12.1095 28.5867 11.9909 28.2758 11.6806C27.8411 11.2467 27.2016 11.3468 26.9306 11.8911C26.8515 12.05 26.8404 12.2281 26.8193 13.687C26.7983 15.134 26.7869 15.32 26.7125 15.4332C26.6667 15.5029 26.5876 15.5599 26.5366 15.5599C26.2945 15.5599 25.7609 14.8521 24.9993 13.5207C23.6489 11.1598 23.1067 9.34684 23.1664 7.39186C23.1909 6.58967 23.2519 6.36353 23.4995 6.15553C23.7087 5.97987 23.9272 6.01841 24.4185 6.31754C24.8414 6.57514 25.0278 6.63191 25.3211 6.59263C25.7405 6.53651 25.9973 6.19589 26.098 5.56256C26.3324 4.08813 26.4919 3.48607 26.8066 2.88841C26.9993 2.52243 27.3648 2.12185 27.6177 1.99973C27.8437 1.89055 28.1565 1.89786 28.4055 2.01815ZM15.1689 6.418C15.6948 6.51753 15.9321 6.74095 15.8323 7.04261C15.799 7.14326 15.2496 7.72273 14.1506 8.81622C13.2529 9.70945 12.4722 10.4636 12.4158 10.4921C11.9933 10.7054 11.6783 10.187 11.6783 9.27817C11.6783 8.75111 11.7617 8.43276 12.0403 7.89524C12.6081 6.80039 13.9191 6.18141 15.1689 6.418ZM27.3363 7.25558C27.247 7.30345 27.11 7.42139 27.0318 7.51778C26.9051 7.67402 26.8897 7.72718 26.8897 8.00874C26.8897 8.28251 26.9073 8.34739 27.0216 8.49703C27.1783 8.70208 27.4601 8.85668 27.6745 8.85523C28.0309 8.85284 28.411 8.55863 28.508 8.21022C28.577 7.96228 28.5714 7.91901 28.435 7.64594C28.2212 7.21761 27.732 7.04379 27.3363 7.25558ZM17.3759 8.5732C17.5265 8.6537 17.5909 8.89887 17.5855 9.37192C17.5687 10.8539 16.4797 12.0172 14.9011 12.2395C14.2538 12.3307 13.7926 12.123 13.8773 11.7785C13.8993 11.6891 14.39 11.1638 15.3746 10.1755C16.1801 9.36705 16.9026 8.6657 16.9801 8.61699C17.1369 8.5184 17.25 8.50589 17.3759 8.5732ZM37.2286 15.8014C37.4698 16.0252 37.3883 16.4133 36.7897 17.892C36.388 18.8844 36.377 18.922 36.3768 19.2941C36.3767 19.6507 36.3864 19.6885 36.5201 19.8534C36.739 20.1233 36.941 20.2049 37.5009 20.2497C37.7746 20.2715 38.052 20.3206 38.1304 20.3611C38.601 20.6041 38.5784 21.0861 38.059 21.8786C37.8305 22.2272 36.6174 23.4637 36.1635 23.8105C34.8144 24.8414 32.8052 25.8678 31.1652 26.364C30.5413 26.5527 29.666 26.6922 29.3768 26.6489C28.6174 26.5352 28.4534 25.7988 28.7501 23.834C28.954 22.4835 29.4044 20.307 29.6345 19.5599C29.9964 18.3853 30.2863 17.7861 30.5653 17.6361C30.7059 17.5606 30.7313 17.5596 30.8476 17.6247C30.9206 17.6656 31.052 17.8361 31.1538 18.022C31.3733 18.4228 31.4859 18.5479 31.7272 18.6591C32.2011 18.8774 32.4579 18.7524 33.3126 17.8875C34.1007 17.0899 34.7769 16.5745 35.5766 16.1619C36.5355 15.6673 36.9797 15.5703 37.2286 15.8014ZM8.80636 18.2517C8.92936 18.303 8.97746 18.3595 9.01592 18.4978C9.04795 18.6129 9.06599 19.4726 9.06613 20.8939C9.06641 23.2541 9.05692 23.362 8.83863 23.4787C8.69773 23.5539 8.60028 23.5409 8.31656 23.4091C7.95075 23.2392 7.30648 22.5759 7.1027 22.1596C6.68071 21.2975 6.72458 20.2138 7.21522 19.3781C7.52463 18.8511 8.24306 18.2478 8.63348 18.1872C8.64076 18.1861 8.71858 18.2151 8.80636 18.2517ZM11.5368 18.5162C11.8077 18.6833 12.2391 19.198 12.422 19.5724C12.823 20.3933 12.83 21.3646 12.4405 22.1543C12.2697 22.5005 11.6863 23.1552 11.468 23.2454C11.3931 23.2763 11.2607 23.2949 11.1737 23.2866C11.0467 23.2745 10.9993 23.2391 10.9334 23.1074C10.8589 22.9586 10.8512 22.7501 10.8512 20.872C10.8511 19.5469 10.8687 18.7531 10.9002 18.6687C10.9985 18.4044 11.2557 18.3428 11.5368 18.5162ZM23.3273 21.2994C23.7507 21.5087 23.8422 21.5803 24.4043 22.142C25.1643 22.9015 25.5346 23.4624 25.9915 24.5466C26.2636 25.1922 26.5771 26.4992 26.675 27.3968C26.806 28.5974 26.813 28.8097 26.7437 29.5147C26.6304 30.6681 26.4653 31.118 26.0702 31.3498C25.8681 31.4684 25.8245 31.4751 25.2694 31.4717C24.3306 31.4661 23.2141 31.2342 21.6314 30.716C19.9298 30.159 18.9606 29.6421 18.1379 28.8528C17.7676 28.4976 17.6611 28.3397 17.6611 28.1461C17.6611 27.8829 17.8244 27.7516 18.3084 27.6258C18.8875 27.4752 19.1639 27.1836 19.1639 26.7232C19.1639 26.3909 19.0832 26.2217 18.6437 25.634C17.8756 24.6067 17.5239 23.8805 17.484 23.2397C17.4649 22.9335 17.4773 22.8473 17.567 22.6623C17.6309 22.5306 17.7441 22.3976 17.8542 22.3248C18.3019 22.0291 18.8141 22.0965 19.7738 22.5775C20.3271 22.8548 20.4399 22.8949 20.6665 22.8949C21.1495 22.8949 21.4294 22.6187 21.6229 21.951C21.759 21.4815 21.868 21.2889 22.0783 21.1463C22.2166 21.0526 22.2856 21.0391 22.5524 21.0536C22.8119 21.0678 22.9428 21.1093 23.3273 21.2994ZM39.7114 29.6413C39.7903 29.6989 39.7939 29.7258 39.7439 29.8874C39.713 29.9872 39.5187 30.2984 39.3121 30.5788C38.8117 31.2581 38.7194 31.5807 38.9151 31.9675C39.0134 32.1617 39.176 32.2823 39.6098 32.4823C40.0948 32.706 40.2514 32.8514 40.2514 33.0783C40.2514 33.308 40.1549 33.4633 39.8197 33.7733C38.895 34.6284 37.1106 35.4134 35.5548 35.6495C34.9915 35.735 33.5344 35.7373 32.9013 35.6537C31.8645 35.5168 31.8393 35.3431 32.6818 34.1399C34.0416 32.198 34.9163 31.0568 35.3769 30.6239C35.7025 30.3178 35.875 30.2662 36.3495 30.3333C37.0476 30.432 37.7901 30.2869 38.8894 29.837C39.2381 29.6942 39.5458 29.5773 39.5731 29.5771C39.6005 29.5768 39.6627 29.6057 39.7114 29.6413ZM16.7075 35.7631C17.6593 36.1461 17.9324 36.2006 18.8778 36.196C19.7784 36.1916 19.8554 36.2159 20.2252 36.6208C20.828 37.2811 23.0432 40.2884 23.3136 40.8135C23.4659 41.1093 23.3935 41.3201 23.1016 41.4309C23.0329 41.4569 22.6631 41.514 22.2797 41.5576C21.0674 41.6956 19.7945 41.5843 18.7178 41.246C17.4396 40.8444 16.5752 40.4089 15.7736 39.7624C15.1014 39.2203 15.0359 38.7256 15.603 38.4742C16.389 38.1259 16.578 37.953 16.6171 37.547C16.6487 37.2193 16.5487 36.986 16.1344 36.4205C15.7528 35.8997 15.6445 35.6631 15.737 35.5519C15.8314 35.4383 15.9812 35.4709 16.7075 35.7631Z" fill="#E30016"/>
</svg>
