<svg width="63" height="62" viewBox="0 0 63 62" fill="none" xmlns="http://www.w3.org/2000/svg">
<g clip-path="url(#clip0)">
<path d="M30.3154 25.0607C30.2695 25.0401 25.6616 22.9844 20.7004 21.3271C20.1677 21.1494 19.6114 20.9694 19.0465 20.7924C18.5607 20.64 18.0418 20.9043 17.8872 21.3822C17.7325 21.8602 18.0009 22.371 18.4865 22.5232C19.0404 22.6967 19.5857 22.873 20.1073 23.0471C23.9513 24.3311 27.5813 25.8595 28.9635 26.4569C28.8459 27.7765 28.4818 31.0344 27.5293 34.6236C26.6388 35.0782 23.8849 36.2461 20.9916 35.0648C19.2102 34.3373 18.2675 33.2597 17.0742 31.8953C16.2274 30.9272 15.2676 29.8297 13.8421 28.6487C11.77 26.9318 9.13264 26.7687 7.42536 26.8932C8.8046 23.8837 10.307 21.4632 10.9686 20.4462C11.6401 20.6081 12.8061 20.8974 14.2348 21.2849C14.7266 21.4181 15.2343 21.1341 15.3698 20.6507C15.5052 20.1672 15.2167 19.6672 14.7254 19.5337C12.4182 18.9079 10.7777 18.5326 10.7613 18.529C10.3921 18.445 10.0075 18.5916 9.79254 18.8994C9.40359 19.4564 0.30181 32.645 3.39792 41.8182C4.44738 44.9271 6.76017 47.1989 10.2787 48.5812L7.01057 58.0084C4.25075 57.0281 1.33196 55.7484 1.29984 55.7342C0.834357 55.5297 0.288645 55.7351 0.0809414 56.1932C-0.126885 56.6511 0.0818027 57.1882 0.547166 57.3927C0.696053 57.4581 4.22688 59.0063 7.28706 60.0284C10.3471 61.0506 14.1071 61.9379 14.2657 61.9751C14.3378 61.9921 14.4099 62.0002 14.4807 62.0002C14.8981 62.0002 15.2765 61.7198 15.3776 61.3028C15.496 60.8151 15.1902 60.325 14.6944 60.2085C14.66 60.2004 11.554 59.4674 8.75845 58.5923L12.0266 49.1651C13.3175 49.5226 14.5623 49.7017 15.7537 49.7016C16.7213 49.7016 17.6538 49.5834 18.5458 49.3468C19.038 49.2162 19.3294 48.7178 19.1969 48.2336C19.0641 47.7492 18.5574 47.4622 18.0657 47.5928C16.1873 48.091 14.0589 47.9507 11.7394 47.1759C8.30884 46.03 6.09203 44.0355 5.15023 41.2479C3.88543 37.504 4.99051 32.8361 6.59615 28.8232C7.70099 28.6389 10.6238 28.3569 12.6534 30.0382C13.9654 31.1254 14.8739 32.164 15.6754 33.0805C16.975 34.5664 18.0975 35.8498 20.2844 36.7427C21.464 37.2244 22.6111 37.4022 23.6624 37.4022C24.8959 37.4022 25.997 37.1572 26.8623 36.8712C25.7552 40.2194 24.0959 43.5679 21.6223 45.6844C21.2376 46.0135 21.1969 46.5872 21.5313 46.9657C21.7138 47.1723 21.9702 47.278 22.2281 47.278C22.4429 47.278 22.6586 47.2047 22.8333 47.0552C29.933 40.9806 30.8208 26.5489 30.855 25.9375C30.8759 25.5637 30.6618 25.2157 30.3154 25.0607V25.0607Z" fill="#E30016"/>
<path d="M62.9197 37.6875C62.712 37.2295 62.166 37.0242 61.7009 37.2286C61.6687 37.2427 58.7498 38.5223 55.9898 39.5027L52.7218 30.0756C56.2405 28.6933 58.5533 26.4215 59.6025 23.3126C62.6988 14.1395 53.5971 0.950691 53.2081 0.393781C52.9932 0.0859608 52.6085 -0.0605627 52.2394 0.0233553C52.1902 0.034617 47.2613 1.1643 42.3001 2.82147C41.8174 2.98264 41.559 3.49838 41.7228 3.97343C41.8867 4.44848 42.4109 4.70254 42.8934 4.54148C46.7389 3.25704 50.5668 2.29447 52.0322 1.94063C52.8489 3.19613 54.9469 6.59039 56.5129 10.5913C55.2114 10.4842 53.3162 10.5343 51.547 11.3499C51.0854 11.5626 50.8866 12.1034 51.1028 12.5576C51.2597 12.8873 51.5923 13.0808 51.9391 13.0808C52.0702 13.0808 52.2033 13.053 52.3301 12.9948C54.1721 12.1456 56.2859 12.3555 57.2017 12.5072C58.3277 15.9581 58.8907 19.6626 57.8504 22.742C56.9088 25.5297 54.6918 27.5242 51.2613 28.67C47.8281 29.8167 44.8295 29.5625 42.3492 27.9139C39.9205 26.2999 38.1861 23.5407 36.9517 20.5579C37.8173 20.8442 38.9189 21.0893 40.1532 21.0893C41.2043 21.0893 42.3518 20.9114 43.5312 20.4298C45.718 19.5369 46.8404 18.2535 48.1402 16.7676C48.4739 16.3861 48.8189 15.9916 49.1995 15.5843C49.5445 15.215 49.52 14.6406 49.145 14.301C48.7696 13.9614 48.1858 13.9856 47.8409 14.3548C47.4398 14.7841 47.0847 15.19 46.7413 15.5827C45.548 16.9471 44.6054 18.0248 42.8238 18.7522C39.6594 20.0444 36.6603 18.5251 36.0876 18.2053C34.6703 13.8481 34.1781 9.52292 34.0372 7.95076C34.8566 7.59644 36.4638 6.91565 38.4274 6.15663C38.9017 5.9733 39.1354 5.44618 38.949 4.97924C38.7627 4.51242 38.2266 4.28271 37.7527 4.46592C34.8489 5.58822 32.7062 6.54522 32.6849 6.55467C32.3386 6.70967 32.1244 7.05769 32.1455 7.43151C32.1832 8.10552 33.1655 23.9997 41.3136 29.4177C43.0974 30.6039 45.082 31.198 47.2464 31.198C48.4357 31.198 49.6795 31.0185 50.974 30.6593L54.242 40.0863C51.4465 40.9614 48.3404 41.6944 48.3061 41.7024C47.8103 41.8189 47.5044 42.3088 47.6228 42.7967C47.7239 43.2136 48.1023 43.4941 48.5197 43.4941C48.5905 43.4941 48.6626 43.486 48.7348 43.469C48.8932 43.4317 52.6533 42.5446 55.7134 41.5224C58.7735 40.5003 62.3045 38.9521 62.4534 38.8867C62.9187 38.6825 63.1277 38.1455 62.9197 37.6875V37.6875Z" fill="#E30016"/>
<path d="M24.6868 11.6944C24.785 11.6944 24.8847 11.6789 24.9828 11.6462C25.4657 11.4853 25.7244 10.9698 25.5609 10.4948C24.4168 7.16964 24.5776 3.3386 24.5803 3.27539C24.6044 2.7743 24.2113 2.34902 23.7021 2.32517C23.1945 2.29961 22.7608 2.68833 22.7367 3.18941C22.7285 3.36003 22.5502 7.40832 23.8126 11.0772C23.9431 11.4559 24.302 11.6944 24.6868 11.6944V11.6944Z" fill="#E30016"/>
<path d="M9.07008 9.59768C9.14231 9.61705 16.3412 11.59 20.5784 16.6773C20.7609 16.8964 21.0258 17.0098 21.2927 17.0098C21.4986 17.0098 21.7056 16.9424 21.8773 16.804C22.2714 16.4861 22.329 15.9138 22.006 15.5258C17.3866 9.97973 9.8705 7.92901 9.55292 7.84448C9.06073 7.71358 8.55488 7.99948 8.42162 8.48349C8.28812 8.96726 8.57851 9.46605 9.07008 9.59768V9.59768Z" fill="#E30016"/>
<path d="M42.1763 37.761C42.1587 37.7486 40.4156 36.4847 39.3203 34.3336C39.092 33.8852 38.5378 33.7038 38.0819 33.9284C37.6262 34.1532 37.442 34.6988 37.6702 35.1472C38.9764 37.7126 41.01 39.1727 41.096 39.2336C41.2589 39.3492 41.4471 39.4048 41.6336 39.4048C41.9194 39.4048 42.2013 39.2741 42.3819 39.0286C42.6803 38.623 42.5878 38.0555 42.1763 37.761V37.761Z" fill="#E30016"/>
<path d="M34 35.7657C33.5212 35.9377 33.275 36.4593 33.4498 36.9305C34.6927 40.278 34.4194 43.691 34.4165 43.7252C34.3733 44.2246 34.7493 44.6639 35.2568 44.7069C35.2837 44.7092 35.3106 44.7103 35.337 44.7103C35.8109 44.7103 36.214 44.3532 36.2554 43.8799C36.2688 43.7251 36.5712 40.0446 35.1834 36.307C35.0087 35.836 34.479 35.5934 34 35.7657V35.7657Z" fill="#E30016"/>
<path d="M13.1191 42.9287C13.6288 42.9287 14.042 42.5221 14.042 42.0205C14.042 41.5189 13.6288 41.1123 13.1191 41.1123C12.6095 41.1123 12.1963 41.5189 12.1963 42.0205C12.1963 42.5221 12.6095 42.9287 13.1191 42.9287Z" fill="#E30016"/>
<path d="M9.31201 36.1343C9.82169 36.1343 10.2349 35.7277 10.2349 35.2261C10.2349 34.7245 9.82169 34.3179 9.31201 34.3179C8.80233 34.3179 8.38916 34.7245 8.38916 35.2261C8.38916 35.7277 8.80233 36.1343 9.31201 36.1343Z" fill="#E30016"/>
<path d="M54.3125 18.686C54.8222 18.686 55.2354 18.2794 55.2354 17.7778C55.2354 17.2762 54.8222 16.8696 54.3125 16.8696C53.8028 16.8696 53.3896 17.2762 53.3896 17.7778C53.3896 18.2794 53.8028 18.686 54.3125 18.686Z" fill="#E30016"/>
</g>
<defs>
<clipPath id="clip0">
<rect width="63" height="62" fill="white"/>
</clipPath>
</defs>
</svg>
