<svg width="328" height="40" viewBox="0 0 328 40" fill="none" xmlns="http://www.w3.org/2000/svg">
<path d="M300.1 0C313.7 0 313.7 6.9 327.4 6.9V39.5H0V6.9C13.4 6.8 13.5 0 27 0C40.7 0 40.7 6.9 54.3 6.9C68 6.9 68 0 81.7 0C95.3 0 95.3 6.9 109 6.9C122.6 6.9 122.6 0 136.3 0C149.9 0 149.9 6.9 163.6 6.9C177.2 6.9 177.2 0 190.9 0C204.5 0 204.5 6.9 218.2 6.9C231.8 6.9 231.8 0 245.5 0C259.1 0 259.1 6.9 272.8 6.9C286.4 6.9 286.4 0 300.1 0Z" fill="#C4192A"/>
</svg>
